{
    "KPlugin": {
        "Description": "World-wide Free Software and Open Data transport data provider.",
        "Description[ca@valencia]": "Proveïdor de dades mundials de transports de programari lliure i dades obertes.",
        "Description[ca]": "Proveïdor de dades mundials de transports de programari lliure i dades obertes.",
        "Description[en_GB]": "World-wide Free Software and Open Data transport data provider.",
        "Description[eo]": "Tutmonde Libera Programaro kaj Malfermdatuma transportdatumprovizanto.",
        "Description[es]": "Proveedor de datos de transporte mundial de código y datos abiertos.",
        "Description[et]": "Ülemaailmne vabatarkvaraline ja avatud andmetega transpordiandmete pakkuja.",
        "Description[eu]": "Mundu osoko Software Aske eta Datu Irekiko garraio-datu hornitzailea.",
        "Description[fi]": "Maailmanlaajuinen vapaiden ohjelmien ja avoimen datan liikennetietotarjoaja.",
        "Description[fr]": "Fournisseur mondial de données de transport libres et Open Data.",
        "Description[gl]": "Fornecedor internacional de datos de transporte libres.",
        "Description[he]": "ספק נתוני תחבורה בינלאומיים בתצורת תוכנה חופשית ונתונים פתוחים.",
        "Description[hu]": "Szabad szoftverek és nyílt adatok közlekedési adatszolgáltatója.",
        "Description[ia]": "Software gratuite e libere de omne le mundo e Fornitor de datos de transporto aperite. (World-wide Free Software e fornitor de datos de transporto  Open Data).",
        "Description[it]": "Fornitore di dati mondiali di trasporto per software libero e dati aperti.",
        "Description[ka]": "უფასო პროგრამა და ღია მონაცემების ტრანსპორტის მონაცემების პროვაიდერი.",
        "Description[ko]": "전세계를 대상으로 하는 자유 소프트웨어 및 오픈 데이터 대중 교통 데이터 공급자입니다.",
        "Description[nl]": "Leverancier van wereldwijde vrije software en open transportgegevens.",
        "Description[pl]": "Światowy dostawca otwartych danych transportowych i darmowego oprogramowania.",
        "Description[pt]": "Fornecedor de dados de transportes abertos e de 'software' livre mundial.",
        "Description[pt_BR]": "Fornecedor mundial de dados de transporte aberto e de software livre.",
        "Description[ru]": "Всемирный источник открытых данных о транспорте для свободного программного обеспечения.",
        "Description[sl]": "Ponudnik podatkov o prostem programju in odprtih transportnih podatkih.",
        "Description[sv]": "Världsomspännande leverantör av öppen transportinformation med fri programvara",
        "Description[tr]": "Dünya çapı Özgür yazılım ve Açık Veri taşıma veri sağlayıcısı.",
        "Description[uk]": "Всесвітнє джерело відкритих даних щодо транспорту для вільного програмного забезпечення.",
        "Description[x-test]": "xxWorld-wide Free Software and Open Data transport data provider.xx",
        "Description[zh_CN]": "全球范围内的自由软件及开放交通数据的提供商。",
        "Description[zh_TW]": "國際性的自由軟體與開放資料運輸資料提供者。",
        "Name": "Navitia AU",
        "Name[ca@valencia]": "Navitia AU",
        "Name[ca]": "Navitia AU",
        "Name[cs]": "Navitia AU",
        "Name[en_GB]": "Navitia AU",
        "Name[eo]": "Navitia AU",
        "Name[es]": "Navitia AU",
        "Name[eu]": "Navitia AU",
        "Name[fi]": "Navitia AU",
        "Name[fr]": "Navitia AU",
        "Name[gl]": "Navitia AU",
        "Name[hu]": "Navitia AU",
        "Name[ia]": "Navitia AU",
        "Name[it]": "Navitia AU",
        "Name[ka]": "Navitia AU",
        "Name[ko]": "Navitia AU",
        "Name[nl]": "Navitia AU",
        "Name[pl]": "Navitia AU",
        "Name[pt]": "Navitia AU",
        "Name[pt_BR]": "Navitia AU",
        "Name[ru]": "Navitia AU",
        "Name[sl]": "Navitia AU",
        "Name[sv]": "Navitia AU",
        "Name[tr]": "Navitia AU",
        "Name[uk]": "Navitia AU",
        "Name[x-test]": "xxNavitia AUxx"
    },
    "attribution": {
        "name": "© navitia.io",
        "url": "https://www.navitia.io/"
    },
    "coverage": {
        "regularCoverage": {
            "area": {
                "coordinates": [
                    [
                        [
                            112.502839,
                            -10.970007
                        ],
                        [
                            133.808399,
                            -10.113489
                        ],
                        [
                            145.966033,
                            -10.46417
                        ],
                        [
                            152.56069,
                            -14.989316
                        ],
                        [
                            155.819102,
                            -28.157131
                        ],
                        [
                            149.983141,
                            -44.635057
                        ],
                        [
                            131.01627,
                            -37.881487
                        ],
                        [
                            111.222637,
                            -36.290962
                        ]
                    ]
                ],
                "type": "Polygon"
            },
            "region": [
                "AU"
            ]
        }
    },
    "options": {
        "authorization": "48ed1733-d3f0-445a-9210-9fb36e20a8a3",
        "coverage": "au",
        "endpoint": "api.navitia.io"
    },
    "type": {
        "navitia": true
    }
}
