{
    "KPlugin": {
        "Description": "Swiss national railway.",
        "Description[ca@valencia]": "Ferrocarrils nacionals suïssos.",
        "Description[ca]": "Ferrocarrils nacionals suïssos.",
        "Description[cs]": "Švýcarské národní železnice.",
        "Description[de]": "Nationale Eisenbahn in der Schweiz.",
        "Description[en_GB]": "Swiss national railway.",
        "Description[eo]": "Svisa nacia fervojo.",
        "Description[es]": "Compañía ferroviaria suiza.",
        "Description[et]": "Šveitsi üleriigiline raudtee.",
        "Description[eu]": "Suitzako trenbide nazionala.",
        "Description[fi]": "Sveitsin kansallinen rautatie.",
        "Description[fr]": "Chemins de fer nationaux suisses.",
        "Description[gl]": "Tren nacional suízo.",
        "Description[he]": "הרכבת הלאומית של שווייץ.",
        "Description[hu]": "Svájci nemzeti vasúttársaság.",
        "Description[ia]": "Ferrovia national suisse.",
        "Description[it]": "Ferrovie nazionali svizzere.",
        "Description[ka]": "შვეიცარიული ნაციონალური რკინიგზა.",
        "Description[ko]": "스위스 연방 철도입니다.",
        "Description[nl]": "Zwitserse nationale spoorweg.",
        "Description[pl]": "Szwajcarskie koleje państwowe.",
        "Description[pt]": "Caminhos de ferro nacionais da Suíça.",
        "Description[pt_BR]": "Ferrovia nacional suíça.",
        "Description[ru]": "Швейцарские национальные железные дороги.",
        "Description[sl]": "Švicarske nacionalne železnice.",
        "Description[sv]": "Schweizisk statsjärnväg.",
        "Description[tr]": "İsviçre ulusal demiryolları.",
        "Description[uk]": "Швейцарська державна залізниця.",
        "Description[x-test]": "xxSwiss national railway.xx",
        "Description[zh_CN]": "瑞士国家铁路。",
        "Description[zh_TW]": "瑞士國家鐵路。",
        "Name": "Swiss Federal Railways (SBB/CFF/FFS)",
        "Name[ca@valencia]": "Ferrocarril Federal Suïs (SBB/CFF/FFS)",
        "Name[ca]": "Ferrocarril Federal Suïs (SBB/CFF/FFS)",
        "Name[cs]": "Švýcarské Federální Železnice (SBB/CFF/FFS)",
        "Name[de]": "Schweizerische Bundesbahnen (SBB/CFF/FFS)",
        "Name[en_GB]": "Swiss Federal Railways (SBB/CFF/FFS)",
        "Name[eo]": "Svisaj Federaciaj Fervojoj (SBB/CFF/FFS)",
        "Name[es]": "Swiss Federal Railways (SBB/CFF/FFS)",
        "Name[et]": "Swiss Federal Railways (SBB/CFF/FFS)",
        "Name[eu]": "Suitzako Trenbide Federalak (SBB/CFF/FFS)",
        "Name[fi]": "Sveitsin liittovaltion rautatiet (SBB/CFF/FFS)",
        "Name[fr]": "Chemins de fer fédéraux suisses (SBB/CFF/FFS)",
        "Name[gl]": "Trens federais suízos (SBB/CFF/FFS)",
        "Name[hu]": "Swiss Federal Railways (SBB/CFF/FFS)",
        "Name[ia]": "Ferrovias Federal de Suissa (SBB/CFF/FFS)",
        "Name[it]": "Ferrovie federali svizzere (SBB/CFF/FFS)",
        "Name[ka]": "Swiss Federal Railways (SBB/CFF/FFS)",
        "Name[ko]": "스위스 연방 철도(SBB/CFF/CFS)",
        "Name[nl]": "Swiss Federal Railways (SBB/CFF/FFS)",
        "Name[pl]": "Swiss Federal Railways (SBB/CFF/FFS)",
        "Name[pt]": "Caminhos de Ferro Federais da Suíça (SBB/CFF/FFS)",
        "Name[pt_BR]": "Swiss Federal Railways (SBB/CFF/FFS)",
        "Name[ru]": "Swiss Federal Railways (SBB/CFF/FFS)",
        "Name[sl]": "Švicarske federalne železnice (SBB/CFF/FFS)",
        "Name[sv]": "Schweiziska federala järnvägar (SBB/CFF/FFS)",
        "Name[tr]": "İsviçre Federal Demiryolları (SBB/CFF/FFS)",
        "Name[uk]": "Федеральна залізниця Швейцарії (SBB/CFF/FFS)",
        "Name[x-test]": "xxSwiss Federal Railways (SBB/CFF/FFS)xx"
    },
    "attribution": {
        "homepage": "https://www.sbb.ch",
        "isProprietary": true,
        "name": "Schweizerische Bundesbahnen SBB"
    },
    "coverage": {
        "realtimeCoverage": {
            "area": {
                "coordinates": [
                    [
                        [
                            9.1128746,
                            45.6916713
                        ],
                        [
                            9.3757179,
                            46.3581643
                        ],
                        [
                            9.4701861,
                            46.1499267
                        ],
                        [
                            9.9132244,
                            46.2331466
                        ],
                        [
                            10.1259494,
                            46.0585751
                        ],
                        [
                            10.2869483,
                            46.1621969
                        ],
                        [
                            10.2215219,
                            46.4079849
                        ],
                        [
                            10.6022207,
                            46.40928
                        ],
                        [
                            10.6355456,
                            47.106091
                        ],
                        [
                            10.1396223,
                            46.9886857
                        ],
                        [
                            9.9297716,
                            47.1526434
                        ],
                        [
                            9.677668,
                            47.1748092
                        ],
                        [
                            9.8457903,
                            47.5343147
                        ],
                        [
                            8.4941247,
                            47.9746336
                        ],
                        [
                            8.3747305,
                            47.7035127
                        ],
                        [
                            6.9090673,
                            47.6260184
                        ],
                        [
                            6.6333237,
                            47.2434883
                        ],
                        [
                            6.7138849,
                            47.2353
                        ],
                        [
                            5.9554475,
                            46.6274162
                        ],
                        [
                            6.0169235,
                            46.4017304
                        ],
                        [
                            5.7815398,
                            46.13923
                        ],
                        [
                            5.9056872,
                            45.9675096
                        ],
                        [
                            6.6350346,
                            46.286359
                        ],
                        [
                            7.0428415,
                            45.7047787
                        ],
                        [
                            7.5721896,
                            45.8473467
                        ],
                        [
                            7.9028297,
                            45.7678487
                        ],
                        [
                            8.3153844,
                            46.1565566
                        ],
                        [
                            8.759212,
                            45.9658626
                        ],
                        [
                            8.9549592,
                            45.6745492
                        ],
                        [
                            9.1128746,
                            45.6916713
                        ]
                    ]
                ],
                "type": "Polygon"
            },
            "region": [
                "CH"
            ],
            "uicCompanyCodes": [
                "0085",
                "1185",
                "1285",
                "1385"
            ]
        }
    },
    "options": {
        "endpoint": "http://fahrplan.sbb.ch/bin/",
        "locationIdentifierType": "sbb",
        "products": [
            {
                "bitmasks": [
                    1
                ],
                "id": "express-train",
                "mode": "LongDistanceTrain",
                "name": "ICE/EN/CNL/ES/RJ/TGV/THA"
            },
            {
                "bitmasks": [
                    2
                ],
                "id": "long-distance-train",
                "mode": "LongDistanceTrain",
                "name": "EC/IC/ICN/OEC"
            },
            {
                "bitmasks": [
                    4
                ],
                "id": "regional-train-1",
                "mode": "LocalTrain",
                "name": "IR/PE"
            },
            {
                "bitmasks": [
                    8
                ],
                "id": "regional-train-2",
                "mode": "LocalTrain",
                "name": "RE/D"
            },
            {
                "bitmasks": [
                    16
                ],
                "id": "ferry",
                "mode": "Ferry",
                "name": "Schiff/Fähre/Dampfschiff"
            },
            {
                "bitmasks": [
                    32
                ],
                "id": "suburban",
                "mode": "RapidTransit",
                "name": "S/SN/R/TER/RB"
            },
            {
                "bitmasks": [
                    64
                ],
                "id": "bus-taxi",
                "mode": "Bus",
                "name": "Bus/Taxi"
            },
            {
                "bitmasks": [
                    128
                ],
                "id": "funicular",
                "mode": "Tramway",
                "name": "Standseilbahn/Gondelbahn/Luftseilbahn/Sesselbahn"
            },
            {
                "bitmasks": [
                    256
                ],
                "id": "special-train",
                "mode": "LocalTrain",
                "name": "Autoreisezug/Extrazug"
            },
            {
                "bitmasks": [
                    512
                ],
                "id": "tram-metro",
                "mode": "Tramway",
                "name": "Tram/Metro"
            }
        ],
        "standardLocationIdentifierCountries": [
            51,
            54,
            53,
            55,
            56,
            70,
            71,
            74,
            76,
            80,
            81,
            82,
            83,
            84,
            85,
            86,
            87,
            88
        ],
        "standardLocationIdentifierType": "uic"
    },
    "supportedLanguages": [
        "de",
        "en",
        "fr",
        "it"
    ],
    "timezone": "Europe/Zurich",
    "type": {
        "hafasQuery": true
    }
}
