{
    "KPlugin": {
        "Description": "Local transport operator in Berlin, Germany.",
        "Description[ca@valencia]": "Operador de transport local en Berlín, Alemanya.",
        "Description[ca]": "Operador de transport local a Berlín, Alemanya.",
        "Description[cs]": "Místní dopravce v Berlíně, Německo.",
        "Description[de]": "Nahverkehrsunternehmen in Berlin, Deutschland.",
        "Description[en_GB]": "Local transport operator in Berlin, Germany.",
        "Description[eo]": "Loka transportisto en Berlino, Germanio.",
        "Description[es]": "Operador de transporte local de Berlín, Alemania.",
        "Description[et]": "Kohalik transporditeenuse osutaja Saksamaal Berliinis.",
        "Description[eu]": "Tokiko garraio operadorea Berlinen, Alemania.",
        "Description[fi]": "Paikallisliikenneoperaattori Saksan Berliinissä.",
        "Description[fr]": "Transports régionaux à Berlin, Allemagne.",
        "Description[gl]": "Operador de transporte local de Berlín (Alemaña).",
        "Description[he]": "מפעיל תחבורה ציבורית בברלין, גרמניה.",
        "Description[hu]": "Helyi közlekedési szolgáltató Berlinben, Németországban.",
        "Description[ia]": "Transporto public local in  Berlin e Brandenburg ,Germania.",
        "Description[it]": "Operatore di trasporto locale a Berlino, Germania.",
        "Description[ka]": "ლოკალური ტრანსპორტის ოპერატორი ბერლინში, გერმანია.",
        "Description[ko]": "독일 베를린 시내 대중 교통입니다.",
        "Description[nl]": "Lokaal transportbedrijf in Berlijn, Duitsland.",
        "Description[pl]": "Lokalny przedsiębiorstwo komunikacyjne w Berlinie, Niemcy.",
        "Description[pt]": "Operador de transportes locais em Berlim, Alemanha.",
        "Description[pt_BR]": "Operador de transporte local em Berlim, Alemanha.",
        "Description[ru]": "Оператор местного транспорта в Берлине, Германия.",
        "Description[sl]": "Lokalni prevoznik v Berlinu, Nemčija.",
        "Description[sv]": "Lokal transportoperatör i Berlin, Tyskland.",
        "Description[tr]": "Almanya, Berlin için yerel ulaşım operatörü.",
        "Description[uk]": "Місцевий транспортний оператор у Берліні, Німеччина.",
        "Description[x-test]": "xxLocal transport operator in Berlin, Germany.xx",
        "Description[zh_CN]": "德国柏林当地的交通运营单位。",
        "Description[zh_TW]": "德國柏林的區域運輸營運者。",
        "Name": "Berliner Verkehrsbetriebe (BVG)",
        "Name[ca@valencia]": "Berliner Verkehrsbetriebe (BVG)",
        "Name[ca]": "Berliner Verkehrsbetriebe (BVG)",
        "Name[cs]": "Berliner Verkehrsbetriebe (BVG)",
        "Name[de]": "Berliner Verkehrsbetriebe (BVG)",
        "Name[en_GB]": "Berliner Verkehrsbetriebe (BVG)",
        "Name[eo]": "Berliner Verkehrsbetriebe (BVG)",
        "Name[es]": "Berliner Verkehrsbetriebe (BVG)",
        "Name[et]": "Berliner Verkehrsbetriebe (BVG)",
        "Name[eu]": "Berliner Verkehrsbetriebe (BVG / Berlingo garraio publikoko konpainia)",
        "Name[fi]": "Berliner Verkehrsbetriebe (BVG)",
        "Name[fr]": "Berliner Verkehrsbetriebe (BVG)",
        "Name[gl]": "Berliner Verkehrsbetriebe (BVG)",
        "Name[hu]": "Berliner Verkehrsbetriebe (BVG)",
        "Name[ia]": "Berliner Verkehrsbetriebe (BVG)",
        "Name[it]": "Berliner Verkehrsbetriebe (BVG)",
        "Name[ka]": "Berliner Verkehrsbetriebe (BVG)",
        "Name[ko]": "베를린 교통 공사(BVG)",
        "Name[nl]": "Berliner Verkehrsbetriebe (BVG)",
        "Name[pl]": "Berliner Verkehrsbetriebe (BVG)",
        "Name[pt]": "Berliner Verkehrsbetriebe (BVG)",
        "Name[pt_BR]": "Berliner Verkehrsbetriebe (BVG)",
        "Name[ru]": "Berliner Verkehrsbetriebe (BVG)",
        "Name[sk]": "Berliner Verkehrsbetriebe (BVG)",
        "Name[sl]": "Berliner Verkehrsbetriebe (BVG)",
        "Name[sv]": "Berliner Verkehrsbetriebe (BVG)",
        "Name[tr]": "Berliner Verkehrsbetriebe (BVG)",
        "Name[uk]": "Berliner Verkehrsbetriebe (BVG)",
        "Name[x-test]": "xxBerliner Verkehrsbetriebe (BVG)xx",
        "Name[zh_TW]": "Berliner Verkehrsbetriebe (BVG)"
    },
    "attribution": {
        "homepage": "https://www.bvg.de/",
        "isProprietary": true,
        "name": "Berliner Verkehrsbetriebe"
    },
    "coverage": {
        "realtimeCoverage": {
            "area": {
                "coordinates": [
                    [
                        [
                            11.05,
                            53.255
                        ],
                        [
                            14.45,
                            53.658
                        ],
                        [
                            14.908,
                            51.4295
                        ],
                        [
                            13.149,
                            51.25
                        ],
                        [
                            11.05,
                            53.255
                        ]
                    ]
                ],
                "type": "Polygon"
            },
            "region": [
                "DE-BB",
                "DE-BE"
            ]
        }
    },
    "options": {
        "auth": {
            "aid": "dVg4TZbW8anjx9ztPwe2uk4LVRi9wO",
            "type": "AID"
        },
        "client": {
            "id": "BVG",
            "type": "WEB"
        },
        "conGroups": [
            {
                "access": {
                    "mode": "Bike"
                },
                "conGroup": "BIKE_OEV_BIKE",
                "egress": {
                    "mode": "Bike"
                }
            },
            {
                "access": {
                    "mode": "Bike",
                    "qualifier": "Park"
                },
                "conGroup": "BIKE_OEV_WALK",
                "egress": {
                    "mode": "Walk"
                }
            },
            {
                "access": {
                    "mode": "Bike",
                    "qualifier": "Rent"
                },
                "conGroup": "WALK_BIKESHARE_NEXTBIKE",
                "egress": {
                    "mode": "Bike",
                    "qualifier": "Rent"
                }
            }
        ],
        "endpoint": "https://bvg-apps.hafas.de/bin/mgate.exe",
        "ext": "BVG.1",
        "locationIdentifierType": "vbb",
        "products": [
            {
                "bitmasks": [
                    1
                ],
                "id": "suburban",
                "mode": "RapidTransit",
                "name": "S-Bahn"
            },
            {
                "bitmasks": [
                    2
                ],
                "id": "subway",
                "mode": "Metro",
                "name": "U-Bahn"
            },
            {
                "bitmasks": [
                    4
                ],
                "id": "tram",
                "mode": "Tramway",
                "name": "Tram"
            },
            {
                "bitmasks": [
                    8
                ],
                "id": "bus",
                "mode": "Bus",
                "name": "Bus"
            },
            {
                "bitmasks": [
                    16
                ],
                "id": "ferry",
                "mode": "Ferry",
                "name": "Fähre"
            },
            {
                "bitmasks": [
                    32
                ],
                "id": "express",
                "mode": "LongDistanceTrain",
                "name": "IC/ICE"
            },
            {
                "bitmasks": [
                    64
                ],
                "id": "regional",
                "mode": "LocalTrain",
                "name": "RB/RE"
            }
        ],
        "ver": "1.72"
    },
    "supportedLanguages": [
        "de",
        "en"
    ],
    "timezone": "Europe/Berlin",
    "type": {
        "hafasMgate": true
    }
}
