{
    "KPlugin": {
        "Description": "Public transport in Baden-Württemberg, Germany.",
        "Description[ca@valencia]": "Transport públic a Baden-Württemberg, Alemanya.",
        "Description[ca]": "Transport públic a Baden-Württemberg, Alemanya.",
        "Description[cs]": "Veřejná doprava v Bádensku-Württembersku, Německo.",
        "Description[de]": "Öffentliche Verkehrsmittel in Baden-Württemberg, Deutschland.",
        "Description[en_GB]": "Public transport in Baden-Württemberg, Germany.",
        "Description[eo]": "Publika transporto en Baden-Virtembergo, Germanio.",
        "Description[es]": "Transporte público de Baden-Wurtemberg, Alemania.",
        "Description[et]": "Saksamaa Baden-Württembergi ühistransport.",
        "Description[eu]": "Garraio publikoa Baden-Württembergen, Alemania.",
        "Description[fi]": "Julkinen liikenne Saksan Baden-Württembergissä.",
        "Description[fr]": "Transports publics dans le Bade-Wurtemberg, Allemagne.",
        "Description[gl]": "Transporte público de Baden-Württemberg (Alemaña).",
        "Description[he]": "תחבורה ציבורית בבאדן-וירטמברג, גרמניה.",
        "Description[hu]": "Tömegközlekedés Baden-Württembergben, Németországban.",
        "Description[ia]": "Transporto Public  in Baden-Württemberg, Germania.",
        "Description[it]": "Trasporto pubblico nel Baden-Württemberg, Germania.",
        "Description[ka]": "საჯარო ტრანსპორტი ბადენ-ვიურტემბერგში, გერმანია.",
        "Description[ko]": "독일 바덴뷔르템베르크의 대중 교통입니다.",
        "Description[nl]": "Openbaar vervoer in Baden-Württemberg, Duitsland.",
        "Description[pl]": "Transport publiczny w Baden-Württemberg, Niemcy.",
        "Description[pt]": "Transportes públicos em Baden-Württemberg, Alemanha.",
        "Description[pt_BR]": "Transporte público em Baden-Württemberg, Alemanha.",
        "Description[ru]": "Общественный транспорт в Баден-Вюртемберге, Германия.",
        "Description[sl]": "Javni prevoz v deželi Baden-Württemberg v Nemčiji.",
        "Description[sv]": "Kollektivtrafik i Baden-Württemberg, Tyskland.",
        "Description[tr]": "Almanya, Baden-Württenburg için toplu taşıma.",
        "Description[uk]": "Дані щодо громадського транспорту у землі Баден-Вюртемберґ, Німеччина.",
        "Description[x-test]": "xxPublic transport in Baden-Württemberg, Germany.xx",
        "Description[zh_CN]": "德国巴登-符腾堡的公共交通。",
        "Description[zh_TW]": "德國巴登-符騰堡邦的公共運輸。",
        "Name": "bwegt",
        "Name[ca@valencia]": "bwegt",
        "Name[ca]": "bwegt",
        "Name[de]": "bwegt",
        "Name[en_GB]": "bwegt",
        "Name[eo]": "bwegt",
        "Name[es]": "bwegt",
        "Name[et]": "bwegt",
        "Name[eu]": "bwegt",
        "Name[fi]": "bwegt",
        "Name[fr]": "bwegt",
        "Name[gl]": "bwegt",
        "Name[hu]": "bwegt",
        "Name[ia]": "bwegt",
        "Name[it]": "bwegt",
        "Name[ka]": "bwegt",
        "Name[ko]": "bwegt",
        "Name[nl]": "bwegt",
        "Name[pl]": "bwegt",
        "Name[pt]": "bwegt",
        "Name[pt_BR]": "bwegt",
        "Name[ru]": "bwegt",
        "Name[sl]": "bwegt",
        "Name[sv]": "bwegt",
        "Name[tr]": "bwegt",
        "Name[uk]": "bwegt",
        "Name[x-test]": "xxbwegtxx"
    },
    "coverage": {
        "realtimeCoverage": {
            "area": {
                "coordinates": [
                    [
                        [
                            8.3124,
                            49.6365
                        ],
                        [
                            7.2366,
                            47.4941
                        ],
                        [
                            10.473,
                            47.5443
                        ],
                        [
                            10.5414,
                            49.9647
                        ],
                        [
                            8.3124,
                            49.6365
                        ]
                    ]
                ],
                "type": "Polygon"
            },
            "region": [
                "DE-BW"
            ]
        }
    },
    "options": {
        "endpoint": "https://www.efa-bw.de/nvbw3L/",
        "supportedOutputFormats": [
            "XML",
            "JSON"
        ],
        "xmlOutputFormat": "full"
    },
    "supportedLanguages": [
        "de",
        "en"
    ],
    "timezone": "Europe/Berlin",
    "type": {
        "efa": true
    }
}
