{
    "KPlugin": {
        "Description": "Local public transport in and around Angermünde, Germany.",
        "Description[ca@valencia]": "Transport públic local a Angermünde i rodalia, Alemanya.",
        "Description[ca]": "Transport públic local a Angermünde i rodalia, Alemanya.",
        "Description[cs]": "Místní doprava v Angermünde a okolí, Německo.",
        "Description[de]": "Lokale öffentliche Verkehrsmittel in und um Angermünde, Deutschland.",
        "Description[en_GB]": "Local public transport in and around Angermünde, Germany.",
        "Description[eo]": "Loka publika transporto en kaj ĉirkaŭ Angermünde, Germanio.",
        "Description[es]": "Transporte público local de Angermünde y alrededores, Alemania.",
        "Description[eu]": "Tokiko garraio publikoa Angermünde eta inguruan, Alemania.",
        "Description[fi]": "Paikallinen julkinen liikenne Saksan Angermündessä ympäristöineen.",
        "Description[fr]": "Transports publics régionaux dans Angermünde(Allemagne) et sa région.",
        "Description[gl]": "Transporte público local de Angermünde (Alemaña) e arredores.",
        "Description[he]": "תחבורה ציבורית מקומית בתוך וסביב אנגרמונדה, גרמניה.",
        "Description[hu]": "Helyi tömegközlekedés Angermündében és környékén, Németországban.",
        "Description[ia]": "Transporto public local in e ubique Angermünde, Germania.",
        "Description[it]": "Trasporto pubblico locale a Angermünde e dintorni, Germania.",
        "Description[ka]": "ლოკალური საჯარო ტრანსპორტი ანგერმუნდეში, გერმანია და მის გარშემო.",
        "Description[ko]": "독일 앙거뮌데 및 광역권 대중 교통입니다.",
        "Description[nl]": "Lokaal openbaar vervoer in en om Angermünde, Duitsland.",
        "Description[pl]": "Lokalny transport publiczny w i wokół Angermünde, Niemcy.",
        "Description[pt]": "Transportes públicos locais na região de Angermünde, Alemanha.",
        "Description[pt_BR]": "Transporte público local na região de Angermünde, Alemanha.",
        "Description[ru]": "Местный общественный транспорт в Ангермюнде и окрестностях, Германия.",
        "Description[sl]": "Lokalni javni transport v in okoli kraja Angermünde v Nemčiji.",
        "Description[sv]": "Lokal transportoperatör i och omkring Angermünde, Tyskland.",
        "Description[tr]": "Almanya, Angermünde içi ve çevresi için yerel toplu taşıma.",
        "Description[uk]": "Місцевий транспорт в Анґермюнде і околицях, Німеччина.",
        "Description[x-test]": "xxLocal public transport in and around Angermünde, Germany.xx",
        "Description[zh_TW]": "德國安格爾明德與其週遭的區域公共運輸。",
        "Name": "bbnavi Angermünde",
        "Name[ca@valencia]": "bbnavi Angermünde",
        "Name[ca]": "bbnavi Angermünde",
        "Name[de]": "bbnavi Angermünde",
        "Name[en_GB]": "bbnavi Angermünde",
        "Name[eo]": "bbnavi Angermünde",
        "Name[es]": "bbnavi Angermünde",
        "Name[eu]": "bbnavi Angermünde",
        "Name[fi]": "bbnavi Angermünde",
        "Name[fr]": "bbnavi Angermünde",
        "Name[gl]": "bbnavi Angermünde",
        "Name[hu]": "bbnavi Angermünde",
        "Name[ia]": "bbnavi Angermünde",
        "Name[it]": "bbnavi Angermünde",
        "Name[ka]": "bbnavi Angermünde",
        "Name[ko]": "bbnavi Angermünde",
        "Name[nl]": "bbnavi Angermünde",
        "Name[pl]": "bbnavi Angermünde",
        "Name[pt]": "bbnavi Angermünde",
        "Name[pt_BR]": "bbnavi Angermünde",
        "Name[ru]": "bbnavi Angermünde",
        "Name[sl]": "bbnavi Angermünde",
        "Name[sv]": "bbnavi Angermünde",
        "Name[tr]": "bbnavi Angermünde",
        "Name[uk]": "bbnavi Angermünde",
        "Name[x-test]": "xxbbnavi Angermündexx"
    },
    "attribution": {
        "homepage": "https://bbnavi.de/",
        "mixedLicenses": true,
        "name": "bbnavi"
    },
    "coverage": {
        "regularCoverage": {
            "area": {
                "coordinates": [
                    [
                        [
                            14.317186592936189,
                            53.743417
                        ],
                        [
                            14.549204,
                            53.418155
                        ],
                        [
                            14.815123,
                            52.35022
                        ],
                        [
                            14.980024980425659,
                            51.146814
                        ],
                        [
                            11.620201,
                            51.146814
                        ],
                        [
                            11.620201,
                            53.743417
                        ],
                        [
                            14.317186592936189,
                            53.743417
                        ]
                    ]
                ],
                "type": "Polygon"
            },
            "region": [
                "DE-BB"
            ]
        }
    },
    "options": {
        "apiVersion": "otp2",
        "endpoint": "https://api.angermuende.bbnavi.de/otp/routers/default/",
        "supportedTransitModes": [
            "TRANSIT"
        ]
    },
    "supportedLanguages": [
        "de"
    ],
    "timezone": "Europe/Berlin",
    "type": {
        "otpGraphQl": true
    }
}
