{
    "KPlugin": {
        "Description": "Local transport in the Rhein-Main area, Germany.",
        "Description[ca@valencia]": "Transport local en l'àrea de Rin-Main, Alemanya.",
        "Description[ca]": "Transport local a l'àrea de Rin-Main, Alemanya.",
        "Description[cs]": "Místní doprava v oblasti Porýní-Main, Německo.",
        "Description[de]": "Lokale Verkehrsmittel im Gebiet Rhein-Main, Deutschland.",
        "Description[en_GB]": "Local transport in the Rhein-Main area, Germany.",
        "Description[eo]": "Loka transporto en la Rhein-Main-areo, Germanio.",
        "Description[es]": "Transporte local del área de Rin-Meno, Alemania.",
        "Description[et]": "Saksamaa Reini-Maini piirkonna kohalik transport.",
        "Description[eu]": "Tokiko garraioa Rhein-Main eremuan, Alemania.",
        "Description[fi]": "Paikallisliikenne Saksan Rhein-Mainin alueella.",
        "Description[fr]": "Transports régionaux dans la région Rhin-Main, Allemagne.",
        "Description[gl]": "Transporte local da zona de Rin-Meno (Alemaña).",
        "Description[he]": "תחבורה מקומית באזור ריין-מיין, גרמניה.",
        "Description[hu]": "Helyi közlekedés a Rajna-Majna területen, Németországban.",
        "Description[ia]": "Transporto public local in area de Rhein-Main ,Germania.",
        "Description[it]": "Trasporto locale nell'area Reno-Meno, Germania.",
        "Description[ka]": "ადგილობრივი ტრანსპორტი რაინ-მაინის რეგიონში, გერმანია.",
        "Description[ko]": "독일 라인마인 지역 대중 교통입니다.",
        "Description[nl]": "Lokaal transport in het gebied Rhein-Main, Duitsland.",
        "Description[pl]": "Transport lokalny w obszarze Renu-Menu, Niemcy.",
        "Description[pt]": "Transportes locais na região de Rhein-Main, Alemanha.",
        "Description[pt_BR]": "Transporte local na área de Reno-Meno, Alemanha.",
        "Description[ru]": "Местный транспорт в области Рейн-Майн, Германия.",
        "Description[sl]": "Lokalni transport na področju Rhein-Main, Nemčija.",
        "Description[sv]": "Lokal transportoperatör i Rhein-Main-området, Tyskland.",
        "Description[tr]": "Almanya, Rhein-Main bölgesi yerel taşıma.",
        "Description[uk]": "Місцевий транспорт у регіоні Рейн-Майн, Німеччина.",
        "Description[x-test]": "xxLocal transport in the Rhein-Main area, Germany.xx",
        "Description[zh_CN]": "德国莱茵-美因地区的公共交通。",
        "Description[zh_TW]": "德國法蘭克福萊茵-美因地區的區域運輸。",
        "Name": "Rhein-Main-Verkehrsverbund (RMV)",
        "Name[ca@valencia]": "Rhein-Main-Verkehrsverbund (RMV)",
        "Name[ca]": "Rhein-Main-Verkehrsverbund (RMV)",
        "Name[cs]": "Rhein-Main-Verkehrsverbund (RMV)",
        "Name[de]": "Rhein-Main-Verkehrsverbund (RMV)",
        "Name[en_GB]": "Rhein-Main-Verkehrsverbund (RMV)",
        "Name[eo]": "Rhein-Main-Verkehrsverbund (RMV)",
        "Name[es]": "Rhein-Main-Verkehrsverbund (RMV)",
        "Name[et]": "Rhein-Main-Verkehrsverbund (RMV)",
        "Name[eu]": "Rhein-Main-Verkehrsverbund (RMV)",
        "Name[fi]": "Rhein-Main-Verkehrsverbund (RMV)",
        "Name[fr]": "Rhein-Main-Verkehrsverbund (RMV)",
        "Name[gl]": "Rhein-Main-Verkehrsverbund (RMV)",
        "Name[hu]": "Rhein-Main-Verkehrsverbund (RMV)",
        "Name[ia]": "Rhein-Main-Verkehrsverbund (RMV)",
        "Name[it]": "Rhein-Main-Verkehrsverbund (RMV)",
        "Name[ka]": "Rhein-Main-Verkehrsverbund (RMV)",
        "Name[ko]": "라인마인 교통 조합(RMV)",
        "Name[nl]": "Rhein-Main-Verkehrsverbund (RMV)",
        "Name[pl]": "Rhein-Main-Verkehrsverbund (RMV)",
        "Name[pt]": "Rhein-Main-Verkehrsverbund (RMV)",
        "Name[pt_BR]": "Rhein-Main-Verkehrsverbund (RMV)",
        "Name[ru]": "Rhein-Main-Verkehrsverbund (RMV)",
        "Name[sk]": "Rhein-Main-Verkehrsverbund (RMV)",
        "Name[sl]": "Rhein-Main-Verkehrsverbund (RMV)",
        "Name[sv]": "Rhein-Main-Verkehrsverbund (RMV)",
        "Name[tr]": "Rhein-Main-Verkehrsverbund (RMV)",
        "Name[uk]": "Rhein-Main-Verkehrsverbund (RMV)",
        "Name[x-test]": "xxRhein-Main-Verkehrsverbund (RMV)xx"
    },
    "attribution": {
        "homepage": "https://www.rmv.de/",
        "isProprietary": true,
        "name": "Rhein-Main-Verkehrsverbund"
    },
    "coverage": {
        "realtimeCoverage": {
            "area": {
                "coordinates": [
                    [
                        [
                            9.1902564,
                            49.2115561
                        ],
                        [
                            9.6700626,
                            49.6079462
                        ],
                        [
                            9.5006774,
                            49.7639681
                        ],
                        [
                            9.6291012,
                            50.1211745
                        ],
                        [
                            10.0638931,
                            50.3117621
                        ],
                        [
                            10.2826852,
                            50.6861139
                        ],
                        [
                            9.7396435,
                            50.9937509
                        ],
                        [
                            9.5655832,
                            50.7850087
                        ],
                        [
                            9.3560962,
                            50.8832496
                        ],
                        [
                            8.6348803,
                            50.8245082
                        ],
                        [
                            8.2352204,
                            51.0720276
                        ],
                        [
                            7.8066301,
                            50.522654
                        ],
                        [
                            7.9192195,
                            50.332414
                        ],
                        [
                            7.4027711,
                            50.0536516
                        ],
                        [
                            8.2061573,
                            49.4249073
                        ],
                        [
                            8.5057892,
                            49.5370014
                        ],
                        [
                            8.5806443,
                            49.1625175
                        ],
                        [
                            9.1902564,
                            49.2115561
                        ]
                    ]
                ],
                "type": "Polygon"
            },
            "region": [
                "DE-BW",
                "DE-BY",
                "DE-HE",
                "DE-RP"
            ]
        }
    },
    "options": {
        "auth": {
            "aid": "x0k4ZR33ICN9CWmj",
            "type": "AID"
        },
        "client": {
            "id": "RMV",
            "name": "webapp",
            "type": "WEB"
        },
        "endpoint": "https://www.rmv.de/auskunft/bin/jp/mgate.exe",
        "ext": "RMV.1",
        "locationIdentifierType": "rmv",
        "products": [
            {
                "bitmasks": [
                    1
                ],
                "id": "express-train",
                "mode": "LongDistanceTrain",
                "name": "InterCityExpress/Fernzug"
            },
            {
                "bitmasks": [
                    2
                ],
                "id": "long-distance-train",
                "mode": "LongDistanceTrain",
                "name": "EuroCity/InterCity/EuroNight/InterRegio"
            },
            {
                "bitmasks": [
                    4
                ],
                "id": "regional-train",
                "mode": "LocalTrain",
                "name": "RegionalExpress/Regionalbahn"
            },
            {
                "bitmasks": [
                    8
                ],
                "id": "s-bahn",
                "mode": "RapidTransit",
                "name": "S-Bahn"
            },
            {
                "bitmasks": [
                    16
                ],
                "id": "u-bahn",
                "mode": "Metro",
                "name": "U-Bahn"
            },
            {
                "bitmasks": [
                    32
                ],
                "id": "tram",
                "mode": "Tramway",
                "name": "Straßenbahn"
            },
            {
                "bitmasks": [
                    64,
                    128
                ],
                "id": "bus",
                "mode": "Bus",
                "name": "Bus"
            },
            {
                "bitmasks": [
                    256
                ],
                "id": "watercraft",
                "mode": "Ferry",
                "name": "Schiff"
            },
            {
                "bitmasks": [
                    512
                ],
                "id": "ast",
                "mode": "Taxi",
                "name": "Anruf-Sammel-Taxi"
            },
            {
                "bitmasks": [
                    1024
                ],
                "id": "cable-car",
                "mode": "AerialLift",
                "name": "Seilbahn"
            }
        ],
        "standardLocationIdentifierCountries": [
            54,
            55,
            81
        ],
        "standardLocationIdentifierType": "ibnr",
        "ver": "1.18"
    },
    "supportedLanguages": [
        "de",
        "en",
        "fr"
    ],
    "timezone": "Europe/Berlin",
    "type": {
        "hafasMgate": true
    }
}
