{
    "KPlugin": {
        "Description": "Public transport in and around Portland, Oregon, US.",
        "Description[ca@valencia]": "Transport públic a Portland i rodalia, Oregon, EUA.",
        "Description[ca]": "Transport públic a Portland i rodalia, Oregon, EUA.",
        "Description[cs]": "Veřejná doprava v Portlandu a okolí, Oregon, USA.",
        "Description[de]": "Öffentliche Verkehrsmittel in und um Portland, Oregon, USA.",
        "Description[en_GB]": "Public transport in and around Portland, Oregon, US.",
        "Description[eo]": "Publika transporto en kaj ĉirkaŭ Portlando, Oregono, Usono.",
        "Description[es]": "Transporte público de Portland y alrededores, Oregón, Estados Unidos.",
        "Description[et]": "USA Postlandi (Oregoni osariik) ja selle ümbruse ühistransport.",
        "Description[eu]": "Garraio publikoa Portland eta inguruan, Oregon, AEB.",
        "Description[fi]": "Julkinen liikenne Yhdysvaltain Oregonin Portlandissa ympäristöineen.",
        "Description[fr]": "Transports régionaux dans la région de Portland, Oregon, États-Unis.",
        "Description[gl]": "Transporte público de Portland (Oregón, EUA) e arredores.",
        "Description[he]": "תחבורה ציבורית בתוך ומסביב לפורטלנד, אורגון, ארה״ב.",
        "Description[hu]": "Tömegközlekedés Portlandben és környékén, Oregonban, az Amerikai Egyesült Államokban.",
        "Description[ia]": "Transporto public local in e ubique Portland, Oregon, SU.",
        "Description[it]": "Trasporto pubblico locale ad Atlanta e dintorni, Portland, Oregon, Stati Uniti.",
        "Description[ka]": "საჯარო ტრანსპორტი პორტლანდში, ორეგონი, აშშ და მის გარშემო.",
        "Description[ko]": "미국 오리건주 포틀랜드 시내 및 광역권 대중 교통입니다.",
        "Description[nl]": "Openbaar vervoer in en om Portland, Oregon, VS.",
        "Description[pl]": "Transport publiczny w i wokół Portland, Oregon, US.",
        "Description[pt]": "Transportes públicos locais na região de Portland, Oregon, EUA.",
        "Description[pt_BR]": "Transporte público na região de Portland, Oregon, EUA.",
        "Description[ru]": "Общественный транспорт в Портленде и окрестностях, Орегон, США.",
        "Description[sl]": "Javni prevoz v mestu Portland in Oregon, ZDA.",
        "Description[sv]": "Kollektivtrafik i och omkring Portland, Oregon, USA.",
        "Description[tr]": "ABD, Oregon, Portland içi ve çevresi toplu taşıma.",
        "Description[uk]": "Громадський транспорт у Портленді і околицях, Орегон, США.",
        "Description[x-test]": "xxPublic transport in and around Portland, Oregon, US.xx",
        "Description[zh_CN]": "美国俄勒冈州波特兰及其周边地区的公共交通。",
        "Description[zh_TW]": "Portland, Oregon, US 及其週邊的公共運輸。",
        "Name": "TriMet",
        "Name[ca@valencia]": "TriMet",
        "Name[ca]": "TriMet",
        "Name[cs]": "TriMet",
        "Name[de]": "TriMet",
        "Name[en_GB]": "TriMet",
        "Name[eo]": "TriMet",
        "Name[es]": "TriMet",
        "Name[et]": "TriMet",
        "Name[eu]": "TriMet",
        "Name[fi]": "TriMet",
        "Name[fr]": "TriMet",
        "Name[gl]": "TriMet",
        "Name[hu]": "TriMet",
        "Name[ia]": "TriMet",
        "Name[it]": "TriMet",
        "Name[ka]": "TriMet",
        "Name[ko]": "TriMet",
        "Name[nl]": "TriMet",
        "Name[pl]": "TriMet",
        "Name[pt]": "TriMet",
        "Name[pt_BR]": "TriMet",
        "Name[ru]": "TriMet",
        "Name[sl]": "TriMet",
        "Name[sv]": "TriMet",
        "Name[tr]": "TriMet",
        "Name[uk]": "TriMet",
        "Name[x-test]": "xxTriMetxx"
    },
    "coverage": {
        "anyCoverage": {
            "area": {
                "coordinates": [
                    [
                        [
                            -123.799993,
                            45.959999
                        ],
                        [
                            -121.500002,
                            45.959999
                        ],
                        [
                            -121.500002,
                            44.680003
                        ],
                        [
                            -123.799993,
                            44.680003
                        ],
                        [
                            -123.799993,
                            45.959999
                        ]
                    ]
                ],
                "type": "Polygon"
            },
            "region": [
                "US-OR"
            ]
        }
    },
    "options": {
        "endpoint": "https://maps.trimet.org/otp_mod/"
    },
    "type": {
        "otpRest": true
    }
}
